{
    "id": "MagicLib",
    "name": "MagicLib",
    "author": "Modding Community",
    "utility": "true",
    "version": "0.35",
    "description": "A collection of classes to aid modding. Not a mod in itself, but required by other mods.",
    "gameVersion": "0.95a-RC15",
    "dependencies": [
        {
            "id": "lw_lazylib",
            "name": "LazyLib",
            #"version": "2.6"
        },
    ],
    "jars": ["jars/MagicLib.jar"],
    "modPlugin": "data.scripts.Magic_modPlugin"
}